single-cycle-RV32I/single-cycle-RV32I.sim/sim_1/behav/xsim/top_tb.vcd
$date
   Thu Mar 13 13:28:44 2025
$end

$version
  2024.1
  $dumpfile ("top_tb.vcd") 
$end

$timescale
  1ps
$end

$scope module top_tb $end
$var reg 1 ! clk $end
$var reg 1 " reset $end
$var integer 32 # i [31:0] $end
$scope module DUT $end
$var wire 1 $ clk $end
$var wire 1 % reset $end
$var wire 32 & pc [31:0] $end
$var wire 32 ' inst [31:0] $end
$var wire 32 ( dmemDataStore [31:0] $end
$var wire 32 ) dmemDataRead [31:0] $end
$var wire 32 * dmemAdrs [31:0] $end
$var wire 3 + dmemMode [2:0] $end
$var wire 1 , dmemWE $end
$scope module RV32I_Logic $end
$var wire 1 $ clk $end
$var wire 1 % reset $end
$var wire 32 ' inst [31:0] $end
$var wire 32 ) dmemDataRead [31:0] $end
$var wire 32 * dmemAdrs [31:0] $end
$var wire 32 ( dmemDataStore [31:0] $end
$var wire 32 & pc [31:0] $end
$var wire 3 + dmemMode [2:0] $end
$var wire 1 , dmemWE $end
$var wire 32 - ALUResults [31:0] $end
$var wire 4 . ALUControl [3:0] $end
$var wire 3 / immSEL [2:0] $end
$var wire 2 0 regSEL [1:0] $end
$var wire 2 1 pcSEL [1:0] $end
$var wire 1 2 regWE $end
$var wire 1 3 rs1SEL $end
$var wire 1 4 rs2SEL $end
$scope module Single_Cycle_Datapath $end
$var wire 1 $ clk $end
$var wire 1 % reset $end
$var wire 1 2 regWE $end
$var wire 1 3 rs1sel $end
$var wire 1 4 rs2sel $end
$var wire 2 0 regsel [1:0] $end
$var wire 2 1 PCsel [1:0] $end
$var wire 3 / ImmSel [2:0] $end
$var wire 4 . ALUControl [3:0] $end
$var wire 32 ' Instr [31:0] $end
$var wire 32 ) dmemData [31:0] $end
$var wire 32 & pc [31:0] $end
$var wire 32 ( dmemrs2 [31:0] $end
$var wire 32 - ALUout [31:0] $end
$var wire 32 5 PC_now [31:0] $end
$var wire 32 6 PC_next [31:0] $end
$var wire 32 7 rdout1 [31:0] $end
$var wire 32 8 rdout2 [31:0] $end
$var wire 32 9 wrs3 [31:0] $end
$var wire 32 : ExtImm [31:0] $end
$var wire 32 ; muxrs1 [31:0] $end
$var wire 32 < muxrs2 [31:0] $end
$var wire 32 = ALUResults [31:0] $end
$var wire 32 > pcplus4 [31:0] $end
$var wire 32 ? pcPlusImm [31:0] $end
$scope module regFILE $end
$var wire 1 $ clk $end
$var wire 1 2 we $end
$var wire 1 % reset $end
$var wire 5 @ rs1 [19:15] $end
$var wire 5 A rs2 [24:20] $end
$var wire 5 B rd [11:7] $end
$var wire 32 9 wrs3 [31:0] $end
$var wire 32 7 rdout1 [31:0] $end
$var wire 32 8 rdout2 [31:0] $end
$var integer 32 C i [31:0] $end
$upscope $end
$scope module pcREG $end
$var wire 1 % reset $end
$var wire 1 $ clk $end
$var wire 32 5 d [31:0] $end
$var reg 32 D q [31:0] $end
$upscope $end
$scope module extendImm $end
$var wire 3 / ImmSrc [2:0] $end
$var wire 25 E Instr [31:7] $end
$var reg 32 F ExtImm [31:0] $end
$upscope $end
$scope module MUXrs1 $end
$var wire 32 7 a [31:0] $end
$var wire 32 6 b [31:0] $end
$var wire 1 3 sel $end
$var wire 32 ; y [31:0] $end
$upscope $end
$scope module MUXrs2 $end
$var wire 32 8 a [31:0] $end
$var wire 32 : b [31:0] $end
$var wire 1 4 sel $end
$var wire 32 < y [31:0] $end
$upscope $end
$scope module alu $end
$var wire 32 ; a [31:0] $end
$var wire 32 < b [31:0] $end
$var wire 4 . ALUControl [3:0] $end
$var reg 32 G result [31:0] $end
$var wire 32 H a_signed [31:0] $end
$var wire 32 I b_signed [31:0] $end
$upscope $end
$scope module plus4 $end
$var wire 32 J a [31:0] $end
$var wire 32 6 b [31:0] $end
$var wire 32 > y [31:0] $end
$upscope $end
$scope module regmux $end
$var wire 32 ) a [31:0] $end
$var wire 32 = b [31:0] $end
$var wire 32 : c [31:0] $end
$var wire 32 > d [31:0] $end
$var wire 2 0 sel [1:0] $end
$var reg 32 K y [31:0] $end
$upscope $end
$scope module pcmux $end
$var wire 32 > a [31:0] $end
$var wire 32 = b [31:0] $end
$var wire 32 ? c [31:0] $end
$var wire 32 L d [31:0] $end
$var wire 2 1 sel [1:0] $end
$var reg 32 M y [31:0] $end
$upscope $end
$scope module adderImm $end
$var wire 32 6 a [31:0] $end
$var wire 32 : b [31:0] $end
$var wire 32 ? y [31:0] $end
$upscope $end
$upscope $end
$scope module Single_Cycle_Control $end
$var wire 32 ' inst [31:0] $end
$var wire 1 N jump $end
$var wire 1 $ clk $end
$var wire 1 % reset $end
$var reg 4 O ALUControl [3:0] $end
$var reg 3 P dmemMode [2:0] $end
$var reg 3 Q immSEL [2:0] $end
$var reg 2 R regSEL [1:0] $end
$var reg 2 S pcSEL [1:0] $end
$var reg 1 T dmemWE $end
$var reg 1 U regWE $end
$var reg 1 V rs1SEL $end
$var reg 1 W rs2SEL $end
$var wire 7 X opcode [6:0] $end
$var wire 7 Y funct7 [6:0] $end
$var wire 3 Z funct3 [2:0] $end
$upscope $end
$upscope $end
$scope module dataMemory $end
$var wire 1 $ clk $end
$var wire 1 , we $end
$var wire 1 % reset $end
$var wire 3 + mode [2:0] $end
$var wire 32 * a [31:0] $end
$var wire 32 ( wd [31:0] $end
$var reg 32 [ rd [31:0] $end
$var integer 32 \ i [31:0] $end
$upscope $end
$scope module instrMemory $end
$var wire 32 & a [31:0] $end
$var wire 32 ' rd [31:0] $end
$upscope $end
$upscope $end
$upscope $end
$enddefinitions $end

#0
$dumpvars
0!
1"
b100000 #
0$
1%
b0 &
b101000000000010100010011 '
b0 (
b0 )
b1010 *
b0 +
0,
b1010 -
b0 .
b11 /
b1 0
b0 1
12
03
14
b100 5
b0 6
b0 7
b0 8
b1010 9
b1010 :
b0 ;
b1010 <
b1010 =
b100 >
b1010 ?
b0 @
b1010 A
b1010 B
b100000 C
b0 D
b10100000000001010 E
b1010 F
b1010 G
b0 H
b1010 I
b100 J
b1010 K
bx L
b100 M
0N
b0 O
b0 P
b11 Q
b1 R
b0 S
0T
1U
0V
1W
b10011 X
b0 Y
b0 Z
b0 [
bx \
$end

#2000
1!
1$
b100000 C

#4000
0!
0"
0$
0%

#6000
1!
1$
b100 &
b101000000000010110010011 '
b1010 (
b1000 5
b100 6
b1010 8
b1000 >
b1110 ?
b0 @
b1010 A
b1011 B
b100 D
b10100000000001011 E
b1000 M

#8000
0!
0$

#10000
1!
1$
b1000 &
b100000000000000011101111 '
b0 (
b0 *
b0 -
b100 /
b11 0
b10 1
04
b10000 5
b1000 6
b0 8
b1100 9
b1000 :
b0 <
b0 =
b1100 >
b10000 ?
b0 @
b1000 A
b1 B
b1000 D
b10000000000000001 E
b1000 F
b0 G
b0 I
b1100 K
b10000 M
0N
b100 Q
b11 R
b10 S
0W
b1101111 X

#12000
0!
0$

#14000
1!
1$
b10000 &
b100000001010000110001100011 '
b0 *
b0 -
b1000 .
b10 /
b0 0
b0 1
02
b10100 5
b10000 6
b1010 7
b0 9
b1011000 :
b1010 ;
b0 =
b10100 >
b1101000 ?
b1010 @
b0 A
b11000 B
b10000 D
b10000000101000011000 E
b1011000 F
b0 G
b1010 H
b0 K
b10100 M
0N
b1000 O
b10 Q
b0 R
b0 S
0U
b1100011 X
b10 Y

#16000
0!
0$

#18000
1!
1$
b10100 &
b100000001011000101001100011 '
b11000 5
b10100 6
b1010100 :
b11000 >
b1101000 ?
b1011 @
b0 A
b10100 B
b10100 D
b10000000101100010100 E
b1010100 F
b11000 M

#20000
0!
0$

#22000
1!
1$
b11000 &
b11000110100001100110011 '
b0 *
b0 -
b100 .
b0 /
b1 0
12
b11100 5
b11000 6
b0 7
b0 9
b11000110100000000000000 :
b0 ;
b0 =
b11100 >
b11000110100000000011000 ?
b110 @
b110 A
b110 B
b11000 D
b1100011010000110 E
b11000110100000000000000 F
b0 G
b0 H
b0 K
b11100 M
0N
b100 O
b0 Q
b1 R
1U
b110011 X
b0 Y
b100 Z

#24000
0!
0$

#26000
1!
1$
b11100 &
b11100111100001110110011 '
b100000 5
b11100 6
b11100111100000000000000 :
b100000 >
b11100111100000000011100 ?
b111 @
b111 A
b111 B
b11100 D
b1110011110000111 E
b11100111100000000000000 F
b100000 M

#28000
0!
0$

#30000
1!
1$
b100000 &
b101000000100011001100011 '
b1010 (
b1 *
b1 -
b1010 .
b10 /
b0 0
b10 1
02
b101100 5
b100000 6
b1010 8
b1100 :
b1010 <
b1 =
b100100 >
b101100 ?
b0 @
b1010 A
b1100 B
b100000 D
b10100000010001100 E
b1100 F
b1 G
b1010 I
b101100 M
1N
b1010 O
b10 Q
b0 R
b10 S
0U
b1100011 X

#32000
0!
0$

#34000
1!
1$
b101100 &
b101100000100011001100011 '
b111000 5
b101100 6
b110000 >
b111000 ?
b0 @
b1011 A
b1100 B
b101100 D
b10110000010001100 E
b111000 M

#36000
0!
0$

#38000
1!
1$
b111000 &
b101001011100011001100011 '
b0 *
b0 -
b0 1
b111100 5
b111000 6
b1010 7
b1010 ;
b0 =
b111100 >
b1000100 ?
b1011 @
b1010 A
b1100 B
b111000 D
b10100101110001100 E
b0 G
b1010 H
b111100 M
0N
b0 S

#40000
0!
0$

#42000
1!
1$
b111100 &
b1010000001010010011 '
b0 (
b0 )
b1010 *
b1010 -
b0 .
b11 /
b1 0
12
14
b1000000 5
b111100 6
b0 8
b1010 9
b0 :
b0 <
b1010 =
b1000000 >
b111100 ?
b1010 @
b0 A
b101 B
b111100 D
b101000000101 E
b0 F
b1010 G
b0 I
b1010 K
b1000000 M
0N
b0 O
b11 Q
b1 R
1U
1W
b10011 X
b0 Z
b0 [

#44000
0!
0$

#46000
1!
1$
b1000000 &
b11001100011 '
b1 *
b1 -
b1000 .
b10 /
b0 0
b10 1
02
04
b1001100 5
b1000000 6
b0 7
b0 9
b1100 :
b0 ;
b1 =
b1000100 >
b1001100 ?
b0 @
b0 A
b1100 B
b1000000 D
b1100 E
b1100 F
b1 G
b0 H
b0 K
b1001100 M
1N
b1000 O
b10 Q
b0 R
b10 S
0U
0W
b1100011 X

#48000
0!
0$

#50000
1!
1$
b1001100 &
b101001010100010100110011 '
b1010 (
b0 *
b0 -
b100 .
b0 /
b1 0
b0 1
12
b1010000 5
b1001100 6
b1010 7
b1010 8
b0 9
b101001010100000000000000 :
b1010 ;
b1010 <
b0 =
b1010000 >
b101001010100000001001100 ?
b1010 @
b1010 A
b1010 B
b1001100 D
b10100101010001010 E
b101001010100000000000000 F
b0 G
b1010 H
b1010 I
b0 K
b1010000 M
0N
b100 O
b0 Q
b1 R
b0 S
1U
b110011 X
b100 Z

#52000
0!
0$

#54000
1!
1$
b1010000 &
b101101010000010100110011 '
b1010 (
b1010 *
b1010 -
b0 .
b1010100 5
b1010000 6
b0 7
b1010 8
b1010 9
b101101010000000000000000 :
b0 ;
b1010 <
b1010 =
b1010100 >
b101101010000000001010000 ?
b1010 @
b1011 A
b1010 B
b1010000 D
b10110101000001010 E
b101101010000000000000000 F
b1010 G
b0 H
b1010 I
b1010 K
b1010100 M
0N
b0 O
b0 Z

#56000
0!
0$

#58000
1!
1$
b1010100 &
b11111111111100101000001010010011 '
b0 (
b0 )
b1001 *
b1001 -
b11 /
14
b1011000 5
b1010100 6
b1010 7
b0 8
b1001 9
b11111111111111111111111111111111 :
b1010 ;
b11111111111111111111111111111111 <
b1001 =
b1011000 >
b1010011 ?
b101 @
b11111 A
b101 B
b1010100 D
b1111111111110010100000101 E
b11111111111111111111111111111111 F
b1001 G
b1010 H
b11111111111111111111111111111111 I
b1001 K
b1011000 M
1N
b11 Q
1W
b10011 X
b1111111 Y
b0 [

#60000
0!
0$

#62000
1!
1$
b1011000 &
b11111110000000101001110011100011 '
b0 *
b0 -
b1000 .
b10 /
b0 0
b10 1
02
04
b1010000 5
b1011000 6
b1001 7
b0 9
b11111111111111111111111111111000 :
b1001 ;
b0 <
b0 =
b1011100 >
b1010000 ?
b101 @
b0 A
b11001 B
b1011000 D
b1111111000000010100111001 E
b11111111111111111111111111111000 F
b0 G
b1001 H
b0 I
b0 K
b1010000 M
0N
b1000 O
b10 Q
b0 R
b10 S
0U
0W
b1100011 X
b1 Z

#64000
0!
0$

#66000
1!
1$
b1010000 &
b101101010000010100110011 '
b1010 (
b10100 *
b10100 -
b0 .
b0 /
b1 0
b0 1
12
b1010100 5
b1010000 6
b1010 7
b1010 8
b10100 9
b101101010000000000000000 :
b1010 ;
b1010 <
b10100 =
b1010100 >
b101101010000000001010000 ?
b1010 @
b1011 A
b1010 B
b1010000 D
b10110101000001010 E
b101101010000000000000000 F
b10100 G
b1010 H
b1010 I
b10100 K
b1010100 M
0N
b0 O
b0 Q
b1 R
b0 S
1U
b110011 X
b0 Y
b0 Z

#68000
0!
0$

#70000
1!
1$
b1010100 &
b11111111111100101000001010010011 '
b0 (
b0 )
b1000 *
b1000 -
b11 /
14
b1011000 5
b1010100 6
b1001 7
b0 8
b1000 9
b11111111111111111111111111111111 :
b1001 ;
b11111111111111111111111111111111 <
b1000 =
b1011000 >
b1010011 ?
b101 @
b11111 A
b101 B
b1010100 D
b1111111111110010100000101 E
b11111111111111111111111111111111 F
b1000 G
b1001 H
b11111111111111111111111111111111 I
b1000 K
b1011000 M
0N
b11 Q
1W
b10011 X
b1111111 Y
b0 [

#72000
0!
0$

#74000
1!
1$
b1011000 &
b11111110000000101001110011100011 '
b0 *
b0 -
b1000 .
b10 /
b0 0
b10 1
02
04
b1010000 5
b1011000 6
b1000 7
b0 9
b11111111111111111111111111111000 :
b1000 ;
b0 <
b0 =
b1011100 >
b1010000 ?
b101 @
b0 A
b11001 B
b1011000 D
b1111111000000010100111001 E
b11111111111111111111111111111000 F
b0 G
b1000 H
b0 I
b0 K
b1010000 M
0N
b1000 O
b10 Q
b0 R
b10 S
0U
0W
b1100011 X
b1 Z

#76000
0!
0$

#78000
1!
1$
b1010000 &
b101101010000010100110011 '
b1010 (
b11110 *
b11110 -
b0 .
b0 /
b1 0
b0 1
12
b1010100 5
b1010000 6
b10100 7
b1010 8
b11110 9
b101101010000000000000000 :
b10100 ;
b1010 <
b11110 =
b1010100 >
b101101010000000001010000 ?
b1010 @
b1011 A
b1010 B
b1010000 D
b10110101000001010 E
b101101010000000000000000 F
b11110 G
b10100 H
b1010 I
b11110 K
b1010100 M
0N
b0 O
b0 Q
b1 R
b0 S
1U
b110011 X
b0 Y
b0 Z

#80000
0!
0$

#82000
1!
1$
b1010100 &
b11111111111100101000001010010011 '
b0 (
b0 )
b111 *
b111 -
b11 /
14
b1011000 5
b1010100 6
b1000 7
b0 8
b111 9
b11111111111111111111111111111111 :
b1000 ;
b11111111111111111111111111111111 <
b111 =
b1011000 >
b1010011 ?
b101 @
b11111 A
b101 B
b1010100 D
b1111111111110010100000101 E
b11111111111111111111111111111111 F
b111 G
b1000 H
b11111111111111111111111111111111 I
b111 K
b1011000 M
1N
b11 Q
1W
b10011 X
b1111111 Y
b0 [

#84000
0!
0$

#86000
1!
1$
b1011000 &
b11111110000000101001110011100011 '
b0 *
b0 -
b1000 .
b10 /
b0 0
b10 1
02
04
b1010000 5
b1011000 6
b111 7
b0 9
b11111111111111111111111111111000 :
b111 ;
b0 <
b0 =
b1011100 >
b1010000 ?
b101 @
b0 A
b11001 B
b1011000 D
b1111111000000010100111001 E
b11111111111111111111111111111000 F
b0 G
b111 H
b0 I
b0 K
b1010000 M
0N
b1000 O
b10 Q
b0 R
b10 S
0U
0W
b1100011 X
b1 Z

#88000
0!
0$

#90000
1!
1$
b1010000 &
b101101010000010100110011 '
b1010 (
b101000 *
b101000 -
b0 .
b0 /
b1 0
b0 1
12
b1010100 5
b1010000 6
b11110 7
b1010 8
b101000 9
b101101010000000000000000 :
b11110 ;
b1010 <
b101000 =
b1010100 >
b101101010000000001010000 ?
b1010 @
b1011 A
b1010 B
b1010000 D
b10110101000001010 E
b101101010000000000000000 F
b101000 G
b11110 H
b1010 I
b101000 K
b1010100 M
0N
b0 O
b0 Q
b1 R
b0 S
1U
b110011 X
b0 Y
b0 Z

#92000
0!
0$

#94000
1!
1$
b1010100 &
b11111111111100101000001010010011 '
b0 (
b0 )
b110 *
b110 -
b11 /
14
b1011000 5
b1010100 6
b111 7
b0 8
b110 9
b11111111111111111111111111111111 :
b111 ;
b11111111111111111111111111111111 <
b110 =
b1011000 >
b1010011 ?
b101 @
b11111 A
b101 B
b1010100 D
b1111111111110010100000101 E
b11111111111111111111111111111111 F
b110 G
b111 H
b11111111111111111111111111111111 I
b110 K
b1011000 M
0N
b11 Q
1W
b10011 X
b1111111 Y
b0 [

#96000
0!
0$

#98000
1!
1$
b1011000 &
b11111110000000101001110011100011 '
b0 *
b0 -
b1000 .
b10 /
b0 0
b10 1
02
04
b1010000 5
b1011000 6
b110 7
b0 9
b11111111111111111111111111111000 :
b110 ;
b0 <
b0 =
b1011100 >
b1010000 ?
b101 @
b0 A
b11001 B
b1011000 D
b1111111000000010100111001 E
b11111111111111111111111111111000 F
b0 G
b110 H
b0 I
b0 K
b1010000 M
0N
b1000 O
b10 Q
b0 R
b10 S
0U
0W
b1100011 X
b1 Z

#100000
0!
0$

#102000
1!
1$
b1010000 &
b101101010000010100110011 '
b1010 (
b110010 *
b110010 -
b0 .
b0 /
b1 0
b0 1
12
b1010100 5
b1010000 6
b101000 7
b1010 8
b110010 9
b101101010000000000000000 :
b101000 ;
b1010 <
b110010 =
b1010100 >
b101101010000000001010000 ?
b1010 @
b1011 A
b1010 B
b1010000 D
b10110101000001010 E
b101101010000000000000000 F
b110010 G
b101000 H
b1010 I
b110010 K
b1010100 M
0N
b0 O
b0 Q
b1 R
b0 S
1U
b110011 X
b0 Y
b0 Z

#104000
0!
0$

#106000
1!
1$
b1010100 &
b11111111111100101000001010010011 '
b0 (
b0 )
b101 *
b101 -
b11 /
14
b1011000 5
b1010100 6
b110 7
b0 8
b101 9
b11111111111111111111111111111111 :
b110 ;
b11111111111111111111111111111111 <
b101 =
b1011000 >
b1010011 ?
b101 @
b11111 A
b101 B
b1010100 D
b1111111111110010100000101 E
b11111111111111111111111111111111 F
b101 G
b110 H
b11111111111111111111111111111111 I
b101 K
b1011000 M
1N
b11 Q
1W
b10011 X
b1111111 Y
b0 [

#108000
0!
0$

#110000
1!
1$
b1011000 &
b11111110000000101001110011100011 '
b0 *
b0 -
b1000 .
b10 /
b0 0
b10 1
02
04
b1010000 5
b1011000 6
b101 7
b0 9
b11111111111111111111111111111000 :
b101 ;
b0 <
b0 =
b1011100 >
b1010000 ?
b101 @
b0 A
b11001 B
b1011000 D
b1111111000000010100111001 E
b11111111111111111111111111111000 F
b0 G
b101 H
b0 I
b0 K
b1010000 M
0N
b1000 O
b10 Q
b0 R
b10 S
0U
0W
b1100011 X
b1 Z

#112000
0!
0$

#114000
1!
1$
b1010000 &
b101101010000010100110011 '
b1010 (
b111100 *
b111100 -
b0 .
b0 /
b1 0
b0 1
12
b1010100 5
b1010000 6
b110010 7
b1010 8
b111100 9
b101101010000000000000000 :
b110010 ;
b1010 <
b111100 =
b1010100 >
b101101010000000001010000 ?
b1010 @
b1011 A
b1010 B
b1010000 D
b10110101000001010 E
b101101010000000000000000 F
b111100 G
b110010 H
b1010 I
b111100 K
b1010100 M
0N
b0 O
b0 Q
b1 R
b0 S
1U
b110011 X
b0 Y
b0 Z

#116000
0!
0$

#118000
1!
1$
b1010100 &
b11111111111100101000001010010011 '
b0 (
b0 )
b100 *
b100 -
b11 /
14
b1011000 5
b1010100 6
b101 7
b0 8
b100 9
b11111111111111111111111111111111 :
b101 ;
b11111111111111111111111111111111 <
b100 =
b1011000 >
b1010011 ?
b101 @
b11111 A
b101 B
b1010100 D
b1111111111110010100000101 E
b11111111111111111111111111111111 F
b100 G
b101 H
b11111111111111111111111111111111 I
b100 K
b1011000 M
0N
b11 Q
1W
b10011 X
b1111111 Y
b0 [

#120000
0!
0$

#122000
1!
1$
b1011000 &
b11111110000000101001110011100011 '
b0 *
b0 -
b1000 .
b10 /
b0 0
b10 1
02
04
b1010000 5
b1011000 6
b100 7
b0 9
b11111111111111111111111111111000 :
b100 ;
b0 <
b0 =
b1011100 >
b1010000 ?
b101 @
b0 A
b11001 B
b1011000 D
b1111111000000010100111001 E
b11111111111111111111111111111000 F
b0 G
b100 H
b0 I
b0 K
b1010000 M
0N
b1000 O
b10 Q
b0 R
b10 S
0U
0W
b1100011 X
b1 Z

#124000
0!
0$

#126000
1!
1$
b1010000 &
b101101010000010100110011 '
b1010 (
b1000110 *
b1000110 -
b0 .
b0 /
b1 0
b0 1
12
b1010100 5
b1010000 6
b111100 7
b1010 8
b1000110 9
b101101010000000000000000 :
b111100 ;
b1010 <
b1000110 =
b1010100 >
b101101010000000001010000 ?
b1010 @
b1011 A
b1010 B
b1010000 D
b10110101000001010 E
b101101010000000000000000 F
b1000110 G
b111100 H
b1010 I
b1000110 K
b1010100 M
0N
b0 O
b0 Q
b1 R
b0 S
1U
b110011 X
b0 Y
b0 Z

#128000
0!
0$

#130000
1!
1$
b1010100 &
b11111111111100101000001010010011 '
b0 (
b0 )
b11 *
b11 -
b11 /
14
b1011000 5
b1010100 6
b100 7
b0 8
b11 9
b11111111111111111111111111111111 :
b100 ;
b11111111111111111111111111111111 <
b11 =
b1011000 >
b1010011 ?
b101 @
b11111 A
b101 B
b1010100 D
b1111111111110010100000101 E
b11111111111111111111111111111111 F
b11 G
b100 H
b11111111111111111111111111111111 I
b11 K
b1011000 M
1N
b11 Q
1W
b10011 X
b1111111 Y
b0 [

#132000
0!
0$

#134000
1!
1$
b1011000 &
b11111110000000101001110011100011 '
b0 *
b0 -
b1000 .
b10 /
b0 0
b10 1
02
04
b1010000 5
b1011000 6
b11 7
b0 9
b11111111111111111111111111111000 :
b11 ;
b0 <
b0 =
b1011100 >
b1010000 ?
b101 @
b0 A
b11001 B
b1011000 D
b1111111000000010100111001 E
b11111111111111111111111111111000 F
b0 G
b11 H
b0 I
b0 K
b1010000 M
0N
b1000 O
b10 Q
b0 R
b10 S
0U
0W
b1100011 X
b1 Z

#136000
0!
0$

#138000
1!
1$
b1010000 &
b101101010000010100110011 '
b1010 (
b1010000 *
b1010000 -
b0 .
b0 /
b1 0
b0 1
12
b1010100 5
b1010000 6
b1000110 7
b1010 8
b1010000 9
b101101010000000000000000 :
b1000110 ;
b1010 <
b1010000 =
b1010100 >
b101101010000000001010000 ?
b1010 @
b1011 A
b1010 B
b1010000 D
b10110101000001010 E
b101101010000000000000000 F
b1010000 G
b1000110 H
b1010 I
b1010000 K
b1010100 M
0N
b0 O
b0 Q
b1 R
b0 S
1U
b110011 X
b0 Y
b0 Z

#140000
0!
0$

#142000
1!
1$
b1010100 &
b11111111111100101000001010010011 '
b0 (
b0 )
b10 *
b10 -
b11 /
14
b1011000 5
b1010100 6
b11 7
b0 8
b10 9
b11111111111111111111111111111111 :
b11 ;
b11111111111111111111111111111111 <
b10 =
b1011000 >
b1010011 ?
b101 @
b11111 A
b101 B
b1010100 D
b1111111111110010100000101 E
b11111111111111111111111111111111 F
b10 G
b11 H
b11111111111111111111111111111111 I
b10 K
b1011000 M
0N
b11 Q
1W
b10011 X
b1111111 Y
b0 [

#144000
0!
0$

#146000
1!
1$
b1011000 &
b11111110000000101001110011100011 '
b0 *
b0 -
b1000 .
b10 /
b0 0
b10 1
02
04
b1010000 5
b1011000 6
b10 7
b0 9
b11111111111111111111111111111000 :
b10 ;
b0 <
b0 =
b1011100 >
b1010000 ?
b101 @
b0 A
b11001 B
b1011000 D
b1111111000000010100111001 E
b11111111111111111111111111111000 F
b0 G
b10 H
b0 I
b0 K
b1010000 M
0N
b1000 O
b10 Q
b0 R
b10 S
0U
0W
b1100011 X
b1 Z

#148000
0!
0$

#150000
1!
1$
b1010000 &
b101101010000010100110011 '
b1010 (
b1011010 *
b1011010 -
b0 .
b0 /
b1 0
b0 1
12
b1010100 5
b1010000 6
b1010000 7
b1010 8
b1011010 9
b101101010000000000000000 :
b1010000 ;
b1010 <
b1011010 =
b1010100 >
b101101010000000001010000 ?
b1010 @
b1011 A
b1010 B
b1010000 D
b10110101000001010 E
b101101010000000000000000 F
b1011010 G
b1010000 H
b1010 I
b1011010 K
b1010100 M
0N
b0 O
b0 Q
b1 R
b0 S
1U
b110011 X
b0 Y
b0 Z

#152000
0!
0$

#154000
1!
1$
b1010100 &
b11111111111100101000001010010011 '
b0 (
b0 )
b1 *
b1 -
b11 /
14
b1011000 5
b1010100 6
b10 7
b0 8
b1 9
b11111111111111111111111111111111 :
b10 ;
b11111111111111111111111111111111 <
b1 =
b1011000 >
b1010011 ?
b101 @
b11111 A
b101 B
b1010100 D
b1111111111110010100000101 E
b11111111111111111111111111111111 F
b1 G
b10 H
b11111111111111111111111111111111 I
b1 K
b1011000 M
1N
b11 Q
1W
b10011 X
b1111111 Y
b0 [

#156000
0!
0$

#158000
1!
1$
b1011000 &
b11111110000000101001110011100011 '
b0 *
b0 -
b1000 .
b10 /
b0 0
b10 1
02
04
b1010000 5
b1011000 6
b1 7
b0 9
b11111111111111111111111111111000 :
b1 ;
b0 <
b0 =
b1011100 >
b1010000 ?
b101 @
b0 A
b11001 B
b1011000 D
b1111111000000010100111001 E
b11111111111111111111111111111000 F
b0 G
b1 H
b0 I
b0 K
b1010000 M
0N
b1000 O
b10 Q
b0 R
b10 S
0U
0W
b1100011 X
b1 Z

#160000
0!
0$

#162000
1!
1$
b1010000 &
b101101010000010100110011 '
b1010 (
b1100100 *
b1100100 -
b0 .
b0 /
b1 0
b0 1
12
b1010100 5
b1010000 6
b1011010 7
b1010 8
b1100100 9
b101101010000000000000000 :
b1011010 ;
b1010 <
b1100100 =
b1010100 >
b101101010000000001010000 ?
b1010 @
b1011 A
b1010 B
b1010000 D
b10110101000001010 E
b101101010000000000000000 F
b1100100 G
b1011010 H
b1010 I
b1100100 K
b1010100 M
0N
b0 O
b0 Q
b1 R
b0 S
1U
b110011 X
b0 Y
b0 Z

#164000
0!
0$

#166000
1!
1$
b1010100 &
b11111111111100101000001010010011 '
b0 (
b0 )
b0 *
b0 -
b11 /
14
b1011000 5
b1010100 6
b1 7
b0 8
b0 9
b11111111111111111111111111111111 :
b1 ;
b11111111111111111111111111111111 <
b0 =
b1011000 >
b1010011 ?
b101 @
b11111 A
b101 B
b1010100 D
b1111111111110010100000101 E
b11111111111111111111111111111111 F
b0 G
b1 H
b11111111111111111111111111111111 I
b0 K
b1011000 M
0N
b11 Q
1W
b10011 X
b1111111 Y
b0 [

#168000
0!
0$

#170000
1!
1$
b1011000 &
b11111110000000101001110011100011 '
b0 )
b1 *
b1 -
b1000 .
b10 /
b0 0
b0 1
02
04
b1011100 5
b1011000 6
b0 7
b0 9
b11111111111111111111111111111000 :
b0 ;
b0 <
b1 =
b1011100 >
b1010000 ?
b101 @
b0 A
b11001 B
b1011000 D
b1111111000000010100111001 E
b11111111111111111111111111111000 F
b1 G
b0 H
b0 I
b0 K
b1011100 M
1N
b1000 O
b10 Q
b0 R
b0 S
0U
0W
b1100011 X
b1 Z
b0 [

#172000
0!
0$

#174000
1!
1$
b1011100 &
b11100110000010001100011 '
b10 1
b1100100 5
b1011100 6
b1000 :
b1100000 >
b1100100 ?
b110 @
b111 A
b1000 B
b1011100 D
b1110011000001000 E
b1000 F
b1100100 M
b10 S
b0 Y
b0 Z

#176000
0!
0$

#178000
1!
1$
b1100100 &
b1000000001100111 '
b1100 *
b1100 -
b1101 .
b11 /
b11 0
b1 1
12
14
b1100 5
b1100100 6
b1100 7
b1101000 9
b0 :
b1100 ;
b1100 =
b1101000 >
b1100100 ?
b1 @
b0 A
b0 B
b1100100 D
b100000000 E
b0 F
b1100 G
b1100 H
b1101000 K
b1100 M
0N
b1101 O
b11 Q
b11 R
b1 S
1U
1W
b1100111 X

#180000
0!
0$

#182000
1!
1$
b1100 &
b11101111 '
b0 *
b0 -
b0 .
b100 /
b10 1
04
b1100 6
b0 7
b10000 9
b0 ;
b0 =
b10000 >
b1100 ?
b0 @
b0 A
b1 B
b1100 D
b1 E
b0 G
b0 H
b10000 K
0N
b0 O
b100 Q
b10 S
0W
b1101111 X

